…
```r
btc_usd_url = 'https://coinmarketcap.com/currencies/bitcoin/historical-data/?start=20160730&end=20170730'

btc_usd_trend_raw = read_html(btc_usd_url) %>%
  html_node('table') %>% 
  html_table() %>% 
  tbl_df() %>% 
  set_names(c('date', 'open', 'high', 'low', 'close', 'volume', 'market_cap'))

btc_usd_trend_raw
```

```
## # A tibble: 365 x 7
##            date    open    high     low   close        volume
##           <chr>   <dbl>   <dbl>   <dbl>   <dbl>         <chr>
##  1 Jul 29, 2017 2807.02 2808.76 2692.80 2726.45   803,746,000
##  2 Jul 28, 2017 2679.73 2897.45 2679.73 2809.01 1,380,100,000
##  3 Jul 27, 2017 2538.71 2693.32 2529.34 2671.78   789,104,000
##  4 Jul 26, 2017 2577.77 2610.76 2450.80 2529.45   937,404,000
##  5 Jul 25, 2017 2757.50 2768.08 2480.96 2576.48 1,460,090,000
##  6 Jul 24, 2017 2732.70 2777.26 2699.19 2754.86   866,474,000
##  7 Jul 23, 2017 2808.10 2832.18 2653.94 2730.40 1,072,840,000
##  8 Jul 22, 2017 2668.63 2862.42 2657.71 2810.12 1,177,130,000
##  9 Jul 21, 2017 2838.41 2838.41 2621.85 2667.76 1,489,450,000
## 10 Jul 20, 2017 2269.89 2900.70 2269.89 2817.60 2,249,260,000
## # ... with 355 more rows, and 1 more variables: market_cap <chr>
```
…
가져온 데이터를 원하는 형태로 전처리한다


```r
btc_usd_trend = btc_usd_trend_raw %>% 
  mutate(date = as_date(parse_date_time(date, 'Om!* d!, Y!')),
         volume = as.numeric(gsub(',', '', volume)),
         market_cap = as.numeric(gsub(',', '', market_cap)))

btc_usd_trend
```

```
## # A tibble: 365 x 7
##          date    open    high     low   close     volume  market_cap
##        <date>   <dbl>   <dbl>   <dbl>   <dbl>      <dbl>       <dbl>
##  1 2017-07-29 2807.02 2808.76 2692.80 2726.45  803746000 46246700000
##  2 2017-07-28 2679.73 2897.45 2679.73 2809.01 1380100000 44144400000
##  3 2017-07-27 2538.71 2693.32 2529.34 2671.78  789104000 41816500000
##  4 2017-07-26 2577.77 2610.76 2450.80 2529.45  937404000 42455000000
##  5 2017-07-25 2757.50 2768.08 2480.96 2576.48 1460090000 45410100000
##  6 2017-07-24 2732.70 2777.26 2699.19 2754.86  866474000 44995600000
##  7 2017-07-23 2808.10 2832.18 2653.94 2730.40 1072840000 46231100000
##  8 2017-07-22 2668.63 2862.42 2657.71 2810.12 1177130000 43929600000
##  9 2017-07-21 2838.41 2838.41 2621.85 2667.76 1489450000 46719000000
## 10 2017-07-20 2269.89 2900.70 2269.89 2817.60 2249260000 37356800000
## # ... with 355 more rows
```
…
